…
Obtener el Delta CT

DCT <- genes %>% 
  mutate(DCT_C1=2^-(Cx1-promedio_controles$Mean_C1),
        DCT_C2=2^-(Cx1-promedio_controles$Mean_C2),
        DCT_C3=2^-(Cx1-promedio_controles$Mean_C3),
        DCT_T1=2^-(T1-promedio_controles$Mean_T1),
        DCT_T2=2^-(T2-promedio_controles$Mean_T2),
        DCT_T3=2^-(T3-promedio_controles$Mean_T3)) %>% 
  select(-2,-3,-4,-5,-6,-7)

DCT

## # A tibble: 360 × 7
##    Gen                    DCT_C1      DCT_C2     DCT_C3   DCT_T1  DCT_T2  DCT_T3
##    <chr>                   <dbl>       <dbl>      <dbl>    <dbl>   <dbl>   <dbl>
##  1 ath-miR159a-000338 0.00000124 0.000000960 0.00000114  1.47e-6 1.03e-6 1.16e-6
##  2 hsa-let-7a-000377  0.0289     0.0223      0.0264      3.70e-2 4.49e-2 1.98e-2
##  3 hsa-let-7b-002619  0.127      0.0985      0.116       1.62e-1 1.98e-1 7.75e-2
##  4 hsa-let-7c-000379  0.00900    0.00695     0.00822     6.40e-3 8.67e-3 2.39e-3
##  5 hsa-let-7d-002283  0.00893    0.00690     0.00816     1.23e-2 1.46e-2 9.87e-3
##  6 hsa-let-7e-002406  0.167      0.129       0.152       1.91e-1 2.21e-1 1.03e-1
##  7 hsa-let-7f-000382  0.00190    0.00147     0.00174     3.58e-3 4.25e-3 1.24e-3
##  8 hsa-let-7g-002282  0.00963    0.00744     0.00880     9.86e-3 8.59e-3 5.50e-3
##  9 hsa-miR-1-002222   0.0000150  0.0000116   0.0000137   5.99e-6 9.45e-6 3.04e-6
## 10 hsa-miR-100-000437 0.287      0.222       0.262       4.10e-1 2.69e-1 6.25e-1
## # ℹ 350 more rows

Obtener el promedio de grupos

promedio_genes <- DCT %>% 
  mutate(Mean_DCT_Cx=(DCT_C1+DCT_C2+DCT_C3)/3,
         Mean_DCT_Tx=(DCT_T1+DCT_T2+DCT_T3)/3)

promedio_genes

## # A tibble: 360 × 9
##    Gen    DCT_C1  DCT_C2  DCT_C3  DCT_T1  DCT_T2  DCT_T3 Mean_DCT_Cx Mean_DCT_Tx
##    <chr>   <dbl>   <dbl>   <dbl>   <dbl>   <dbl>   <dbl>       <dbl>       <dbl>
##  1 ath-… 1.24e-6 9.60e-7 1.14e-6 1.47e-6 1.03e-6 1.16e-6  0.00000111  0.00000122
##  2 hsa-… 2.89e-2 2.23e-2 2.64e-2 3.70e-2 4.49e-2 1.98e-2  0.0259      0.0339    
##  3 hsa-… 1.27e-1 9.85e-2 1.16e-1 1.62e-1 1.98e-1 7.75e-2  0.114       0.146     
##  4 hsa-… 9.00e-3 6.95e-3 8.22e-3 6.40e-3 8.67e-3 2.39e-3  0.00806     0.00582   
##  5 hsa-… 8.93e-3 6.90e-3 8.16e-3 1.23e-2 1.46e-2 9.87e-3  0.00800     0.0123    
##  6 hsa-… 1.67e-1 1.29e-1 1.52e-1 1.91e-1 2.21e-1 1.03e-1  0.149       0.172     
##  7 hsa-… 1.90e-3 1.47e-3 1.74e-3 3.58e-3 4.25e-3 1.24e-3  0.00171     0.00302   
##  8 hsa-… 9.63e-3 7.44e-3 8.80e-3 9.86e-3 8.59e-3 5.50e-3  0.00862     0.00798   
##  9 hsa-… 1.50e-5 1.16e-5 1.37e-5 5.99e-6 9.45e-6 3.04e-6  0.0000135   0.00000616
## 10 hsa-… 2.87e-1 2.22e-1 2.62e-1 4.10e-1 2.69e-1 6.25e-1  0.257       0.434     
## # ℹ 350 more rows
…
